Master’s Thesis Analysis
…
food_t1 |> summarise(
  n_rows = n(),
  n_unique_id = n_distinct(fastress_id)
)

# A tibble: 1 × 2
  n_rows n_unique_id
   <int>       <int>
1     21          21

food_t1 |> distinct(fastress_id)

# A tibble: 21 × 1
   fastress_id
   <chr>      
 1 sub-006    
 2 sub-007    
 3 sub-001    
 4 sub-002    
 5 sub-005    
 6 sub-003    
 7 sub-004    
 8 sub-008    
 9 sub-009    
10 sub-015    
# ℹ 11 more rows
…
# A tibble: 2 × 2
  match     n
  <lgl> <int>
1 FALSE     1
2 TRUE     31

# Welche Sessions waren Konflikt und wurden per planned_condition entschieden
blood_condition_full |>
  filter(support_class == "conflict_tie_break_planned") |>
  select(fastress_id, session, planned_condition, measured_condition)

# A tibble: 24 × 4
   fastress_id session planned_condition measured_condition
   <chr>       <chr>   <chr>             <chr>             
 1 sub-006     T1      satiated          satiated          
 2 sub-007     T1      satiated          satiated          
 3 sub-005     T1      satiated          satiated          
 4 sub-003     T1      fasted            fasted            
 5 sub-004     T1      fasted            fasted            
 6 sub-008     T1      fasted            fasted            
 7 sub-009     T1      fasted            fasted            
 8 sub-015     T1      satiated          satiated          
 9 sub-017     T1      satiated          satiated          
10 sub-016     T1      satiated          satiated          
# ℹ 14 more rows
…
# A tibble: 1 × 2
  n_persons n_missing_sex
      <int>         <int>
1        21             0

# --------------------------------------------------
# 3. Demografie Tabelle (Table 1 Basis)
# --------------------------------------------------

table1_sample <- education_person |>
  left_join(sex_person |> select(fastress_id, sex_label), by = "fastress_id")

table1_sample

# A tibble: 22 × 4
   fastress_id education education_label                     sex_label
   <chr>           <dbl> <chr>                               <chr>    
 1 sub-001            12 Universitaet Fachhochschule PH ETH  maennlich
 2 sub-002             8 Maturitaet oder Berufsmaturitaet    weiblich 
 3 sub-003             2 obligatorische Schule abgeschlossen weiblich 
 4 sub-004             8 Maturitaet oder Berufsmaturitaet    weiblich 
 5 sub-005             8 Maturitaet oder Berufsmaturitaet    weiblich 
 6 sub-006             8 Maturitaet oder Berufsmaturitaet    weiblich 
 7 sub-007             8 Maturitaet oder Berufsmaturitaet    maennlich
 8 sub-008            12 Universitaet Fachhochschule PH ETH  maennlich
 9 sub-009             8 Maturitaet oder Berufsmaturitaet    weiblich 
10 sub-013            12 Universitaet Fachhochschule PH ETH  maennlich
# ℹ 12 more rows
…
